2 Scenario I: large effect, point prior | Validation Report for adoptr package
…
tibble(
    x1     = seq(opt_cp$design@c1f, opt_cp$design@c1e, length.out = 25),
    cp     = map_dbl(x1, ~evaluate(cp, opt_cp$design, .)),
    cp_sim = map_dbl(x1, function(x1) {
        x2  <- simulate(datadist, 10^6, n2(opt_cp$design, x1), .4, 42)
        rej <- ifelse(x2 > c2(opt_cp$design, x1), 1, 0)
        return(mean(rej))
    }) ) %>% 
  {print(.); .} %>% {
      testthat::expect_true(all(.$cp     >= 0.7 * (1 - tol)))
      testthat::expect_true(all(.$cp_sim >= 0.7 * (1 - tol))) 
      testthat::expect_true(all(abs(.$cp - .$cp_sim) <= tol)) }

## # A tibble: 25 x 3
##       x1    cp cp_sim
##    <dbl> <dbl>  <dbl>
##  1 0.810 0.701  0.701
##  2 0.872 0.698  0.699
##  3 0.934 0.701  0.701
##  4 0.995 0.698  0.698
##  5 1.06  0.700  0.700
##  6 1.12  0.702  0.703
##  7 1.18  0.699  0.699
##  8 1.24  0.703  0.703
##  9 1.30  0.713  0.713
## 10 1.37  0.718  0.718
## # … with 15 more rows
…
