3 Scenario II: large effect, Gaussian prior | Validation Report for adoptr package
…
testthat::expect_true(tbl_toer$toer <= alpha * (1 + tol))
testthat::expect_true(tbl_toer$toer_sim <= alpha * (1 + tol))

The conditional power is evaluated via numerical integration on several points
inside the continuation region and it is tested whether the constraint is
fulfilled on all these points.

tibble(
    x1 = seq(opt_cp$design@c1f, opt_cp$design@c1e, length.out = 25),
    cp = map_dbl(x1, ~evaluate(cp, opt_cp$design, .)) ) %>% 
  {print(.); .} %>% {
      testthat::expect_true(all(.$cp >= 0.7 * (1 - tol))) }

## # A tibble: 25 x 2
##       x1    cp
##    <dbl> <dbl>
##  1 0.718 0.696
##  2 0.787 0.700
##  3 0.855 0.702
##  4 0.924 0.700
##  5 0.993 0.699
##  6 1.06  0.698
##  7 1.13  0.702
##  8 1.20  0.708
##  9 1.27  0.716
## 10 1.34  0.725
## #  with 15 more rows
…
